[
    {
        "id": "start",
        "execute-command": "{{ getenv "CI_PROJECT_DIR" }}/internal/intgrtests/webhook/record.sh",
        "command-working-directory": "{{ getenv "CI_PROJECT_DIR" }}",
        "pass-arguments-to-command": [
            {"source": "url", "name": "root"},
            {"source": "string", "name": "start"},
            {"source": "entire-payload"}
        ],
        "include-command-output-in-response": true,
        "include-command-output-in-response-on-error": true
    },
    {
        "id": "success",
        "execute-command": "{{ getenv "CI_PROJECT_DIR" }}/internal/intgrtests/webhook/record.sh",
        "command-working-directory": "{{ getenv "CI_PROJECT_DIR" }}",
        "pass-arguments-to-command": [
            {"source": "url", "name": "root"},
            {"source": "string", "name": "success"},
            {"source": "entire-payload"}
        ],
        "include-command-output-in-response": true,
        "include-command-output-in-response-on-error": true
    },
    {
        "id": "error",
        "execute-command": "{{ getenv "CI_PROJECT_DIR" }}/internal/intgrtests/webhook/record.sh",
        "command-working-directory": "{{ getenv "CI_PROJECT_DIR" }}",
        "pass-arguments-to-command": [
            {"source": "url", "name": "root"},
            {"source": "string", "name": "error"},
            {"source": "entire-payload"}
        ],
        "include-command-output-in-response": true,
        "include-command-output-in-response-on-error": true
    },
    {
        "id": "nochg",
        "execute-command": "{{ getenv "CI_PROJECT_DIR" }}/intgrtests/webhook/record.sh",
        "command-working-directory": "{{ getenv "CI_PROJECT_DIR" }}",
        "pass-arguments-to-command": [
            {"source": "url", "name": "root"},
            {"source": "string", "name": "nochg"},
            {"source": "entire-payload"}
        ],
        "include-command-output-in-response": true,
        "include-command-output-in-response-on-error": true
    },
    {
        "id": "update",
        "execute-command": "{{ getenv "CI_PROJECT_DIR" }}/internal/intgrtests/webhook/record.sh",
        "command-working-directory": "{{ getenv "CI_PROJECT_DIR" }}",
        "pass-arguments-to-command": [
            {"source": "url", "name": "root"},
            {"source": "string", "name": "update"},
            {"source": "entire-payload"}
        ],
        "include-command-output-in-response": true,
        "include-command-output-in-response-on-error": true
    }
]